{
  "__inputs": [
    {
      "name": "DS_PG_METRICS",
      "label": "PG metrics",
      "description": "",
      "type": "datasource",
      "pluginId": "postgres",
      "pluginName": "PostgreSQL"
    }
  ],
  "__elements": {},
  "__requires": [
    {
      "type": "grafana",
      "id": "grafana",
      "name": "Grafana",
      "version": "10.2.2"
    },
    {
      "type": "datasource",
      "id": "postgres",
      "name": "PostgreSQL",
      "version": "1.0.0"
    },
    {
      "type": "panel",
      "id": "table",
      "name": "Table",
      "version": ""
    },
    {
      "type": "panel",
      "id": "timeseries",
      "name": "Time series",
      "version": ""
    }
  ],
  "annotations": {
    "list": [
      {
        "builtIn": 1,
        "datasource": {
          "type": "grafana",
          "uid": "-- Grafana --"
        },
        "enable": true,
        "hide": true,
        "iconColor": "rgba(0, 211, 255, 1)",
        "name": "Annotations & Alerts",
        "target": {
          "limit": 100,
          "matchAny": false,
          "tags": [],
          "type": "dashboard"
        },
        "type": "dashboard"
      }
    ]
  },
  "description": "For one query",
  "editable": false,
  "fiscalYearStartMonth": 0,
  "graphTooltip": 2,
  "id": null,
  "links": [],
  "liveNow": false,
  "panels": [
    {
      "datasource": {
        "type": "postgres",
        "uid": "${DS_PG_METRICS}"
      },
      "description": "",
      "fieldConfig": {
        "defaults": {
          "color": {
            "mode": "thresholds"
          },
          "custom": {
            "align": "auto",
            "cellOptions": {
              "type": "auto"
            },
            "inspect": true
          },
          "mappings": [],
          "thresholds": {
            "mode": "absolute",
            "steps": [
              {
                "color": "green",
                "value": null
              },
              {
                "color": "red",
                "value": 80
              }
            ]
          }
        },
        "overrides": []
      },
      "gridPos": {
        "h": 4,
        "w": 24,
        "x": 0,
        "y": 0
      },
      "id": 2,
      "options": {
        "cellHeight": "sm",
        "footer": {
          "countRows": false,
          "fields": "",
          "reducer": [
            "sum"
          ],
          "show": false
        },
        "showHeader": true,
        "sortBy": []
      },
      "pluginVersion": "10.2.2",
      "targets": [
        {
          "datasource": {
            "type": "postgres",
            "uid": "${DS_PG_METRICS}"
          },
          "format": "table",
          "group": [],
          "metricColumn": "none",
          "rawQuery": true,
          "rawSql": "select distinct\n  (tag_data->>'query')::text as query\nfrom stat_statements\nwhere dbname = '$dbname'\n  and (tag_data->>'queryid')::text = '$queryid'",
          "refId": "A",
          "select": [
            [
              {
                "params": [
                  "value"
                ],
                "type": "column"
              }
            ]
          ],
          "timeColumn": "time",
          "where": [
            {
              "name": "$__timeFilter",
              "params": [],
              "type": "macro"
            }
          ]
        }
      ],
      "title": "SQL text",
      "type": "table"
    },
    {
      "collapsed": false,
      "gridPos": {
        "h": 1,
        "w": 24,
        "x": 0,
        "y": 4
      },
      "id": 4,
      "panels": [],
      "title": "pg_wait_sampling",
      "type": "row"
    },
    {
      "datasource": {
        "type": "postgres",
        "uid": "${DS_PG_METRICS}"
      },
      "description": "pg_wait_sampling - is an extension for collecting sampling statistics of wait events.\n\nhttps://www.postgresql.org/docs/current/monitoring-stats.html#WAIT-EVENT-TABLE",
      "fieldConfig": {
        "defaults": {
          "color": {
            "mode": "palette-classic"
          },
          "custom": {
            "axisBorderShow": false,
            "axisCenteredZero": false,
            "axisColorMode": "text",
            "axisLabel": "",
            "axisPlacement": "auto",
            "barAlignment": 0,
            "drawStyle": "line",
            "fillOpacity": 20,
            "gradientMode": "none",
            "hideFrom": {
              "legend": false,
              "tooltip": false,
              "viz": false
            },
            "insertNulls": false,
            "lineInterpolation": "linear",
            "lineWidth": 1,
            "pointSize": 5,
            "scaleDistribution": {
              "type": "linear"
            },
            "showPoints": "never",
            "spanNulls": true,
            "stacking": {
              "group": "A",
              "mode": "normal"
            },
            "thresholdsStyle": {
              "mode": "off"
            }
          },
          "mappings": [],
          "thresholds": {
            "mode": "absolute",
            "steps": [
              {
                "color": "green",
                "value": null
              },
              {
                "color": "red",
                "value": 80
              }
            ]
          },
          "unit": "short"
        },
        "overrides": []
      },
      "gridPos": {
        "h": 9,
        "w": 24,
        "x": 0,
        "y": 5
      },
      "id": 6,
      "options": {
        "legend": {
          "calcs": [
            "mean",
            "lastNotNull",
            "max",
            "sum"
          ],
          "displayMode": "table",
          "placement": "right",
          "showLegend": true
        },
        "tooltip": {
          "mode": "multi",
          "sort": "desc"
        }
      },
      "targets": [
        {
          "datasource": {
            "type": "postgres",
            "uid": "${DS_PG_METRICS}"
          },
          "format": "time_series",
          "group": [],
          "metricColumn": "none",
          "rawQuery": true,
          "rawSql": "select\n  $__timeGroup(time, $agg_interval),\n  wait_type || ':' || wait_event as wait_type_event,\n  avg((e - e_lag) / ( 1e3 * extract(epoch from time - time_lag) / 10)) as \" \"\nfrom (\n  select\n    (data->>'of_events')::bigint as e,\n    lag((data->>'of_events')::bigint) over w as e_lag,\n    (tag_data->>'wait_type')::text as wait_type,\n    (tag_data->>'wait_event')::text as wait_event,\n    time, lag(time) over w as time_lag\n  from wait_sampling_profile\n  where dbname = '$dbname' and $__timeFilter(time)\n    and (tag_data->>'queryid')::text = '$queryid'\n  window w as (partition by (tag_data->>'wait_type')::text, (tag_data->>'wait_event')::text order by time)\n) x\nwhere e > e_lag and time > time_lag\ngroup by 1, 2\norder by 1;",
          "refId": "A",
          "select": [
            [
              {
                "params": [
                  "value"
                ],
                "type": "column"
              }
            ]
          ],
          "timeColumn": "time",
          "where": [
            {
              "name": "$__timeFilter",
              "params": [],
              "type": "macro"
            }
          ]
        }
      ],
      "title": "Wait Events",
      "type": "timeseries"
    },
    {
      "collapsed": false,
      "gridPos": {
        "h": 1,
        "w": 24,
        "x": 0,
        "y": 14
      },
      "id": 8,
      "panels": [],
      "title": "pg_stat_statements",
      "type": "row"
    },
    {
      "datasource": {
        "type": "postgres",
        "uid": "${DS_PG_METRICS}"
      },
      "description": "Average time spent in the statement",
      "fieldConfig": {
        "defaults": {
          "color": {
            "mode": "palette-classic"
          },
          "custom": {
            "axisBorderShow": false,
            "axisCenteredZero": false,
            "axisColorMode": "text",
            "axisLabel": "",
            "axisPlacement": "auto",
            "barAlignment": 0,
            "drawStyle": "line",
            "fillOpacity": 20,
            "gradientMode": "none",
            "hideFrom": {
              "legend": false,
              "tooltip": false,
              "viz": false
            },
            "insertNulls": false,
            "lineInterpolation": "linear",
            "lineWidth": 1,
            "pointSize": 5,
            "scaleDistribution": {
              "type": "linear"
            },
            "showPoints": "never",
            "spanNulls": true,
            "stacking": {
              "group": "A",
              "mode": "none"
            },
            "thresholdsStyle": {
              "mode": "off"
            }
          },
          "mappings": [],
          "thresholds": {
            "mode": "absolute",
            "steps": [
              {
                "color": "green",
                "value": null
              },
              {
                "color": "red",
                "value": 80
              }
            ]
          },
          "unit": "ms"
        },
        "overrides": []
      },
      "gridPos": {
        "h": 9,
        "w": 24,
        "x": 0,
        "y": 15
      },
      "id": 9,
      "options": {
        "legend": {
          "calcs": [
            "mean"
          ],
          "displayMode": "list",
          "placement": "bottom",
          "showLegend": true
        },
        "tooltip": {
          "mode": "multi",
          "sort": "desc"
        }
      },
      "targets": [
        {
          "datasource": {
            "type": "postgres",
            "uid": "${DS_PG_METRICS}"
          },
          "format": "time_series",
          "group": [],
          "metricColumn": "none",
          "rawQuery": true,
          "rawSql": "select\n  $__timeGroup(time, $agg_interval),\n  avg((t - t_lag) / (c - c_lag)) as \" \"\nfrom (\n  select\n    (data->>'total_time')::numeric as t, lag((data->>'total_time')::numeric) over w as t_lag,\n    (data->>'calls')::bigint as c, lag((data->>'calls')::bigint) over w as c_lag,\n    time\n  from stat_statements\n  where dbname = '$dbname' and $__timeFilter(time)\n    and (tag_data->>'queryid')::text = '$queryid'\n  window w as (order by time)\n) x\nwhere t > t_lag and  c > c_lag\ngroup by 1\norder by 1;",
          "refId": "A",
          "select": [
            [
              {
                "params": [
                  "value"
                ],
                "type": "column"
              }
            ]
          ],
          "timeColumn": "time",
          "where": [
            {
              "name": "$__timeFilter",
              "params": [],
              "type": "macro"
            }
          ]
        }
      ],
      "title": "Average runtime",
      "type": "timeseries"
    },
    {
      "datasource": {
        "type": "postgres",
        "uid": "${DS_PG_METRICS}"
      },
      "description": "Maximum time spent executing the statement.\n\nThis graph shows the cumulative metric gathered through pg_stat_statements. To ensure accuracy for this metric, recommended periodically reset the statistics with pg_stat_statements_reset()",
      "fieldConfig": {
        "defaults": {
          "color": {
            "mode": "palette-classic"
          },
          "custom": {
            "axisBorderShow": false,
            "axisCenteredZero": false,
            "axisColorMode": "text",
            "axisLabel": "",
            "axisPlacement": "auto",
            "barAlignment": 0,
            "drawStyle": "line",
            "fillOpacity": 0,
            "gradientMode": "none",
            "hideFrom": {
              "legend": false,
              "tooltip": false,
              "viz": false
            },
            "insertNulls": false,
            "lineInterpolation": "linear",
            "lineWidth": 1,
            "pointSize": 5,
            "scaleDistribution": {
              "type": "linear"
            },
            "showPoints": "never",
            "spanNulls": true,
            "stacking": {
              "group": "A",
              "mode": "none"
            },
            "thresholdsStyle": {
              "mode": "off"
            }
          },
          "decimals": 3,
          "mappings": [],
          "thresholds": {
            "mode": "absolute",
            "steps": [
              {
                "color": "green",
                "value": null
              },
              {
                "color": "red",
                "value": 80
              }
            ]
          },
          "unit": "ms"
        },
        "overrides": []
      },
      "gridPos": {
        "h": 8,
        "w": 24,
        "x": 0,
        "y": 24
      },
      "id": 29,
      "options": {
        "legend": {
          "calcs": [
            "max",
            "mean"
          ],
          "displayMode": "table",
          "placement": "right",
          "showLegend": false,
          "sortBy": "Mean",
          "sortDesc": true
        },
        "tooltip": {
          "mode": "single",
          "sort": "none"
        }
      },
      "targets": [
        {
          "datasource": {
            "type": "postgres",
            "uid": "${DS_PG_METRICS}"
          },
          "editorMode": "code",
          "format": "time_series",
          "group": [],
          "metricColumn": "none",
          "rawQuery": true,
          "rawSql": "select\n  $__timeGroup(time, $agg_interval),\n  queryid,\n  max_time as \" \"\nfrom (\n  select\n    (data->>'max_time')::numeric as max_time,\n    (tag_data->>'queryid')::text as queryid,\n    (data->>'calls')::bigint as calls,\n    time\n  from stat_statements\n  where dbname = '$dbname' and $__timeFilter(time)\n    and (tag_data->>'queryid')::text = '$queryid'\n  order by time\n) x\nwhere calls > 0\norder by 1, 2\n",
          "refId": "A",
          "select": [
            [
              {
                "params": [
                  "value"
                ],
                "type": "column"
              }
            ]
          ],
          "sql": {
            "columns": [
              {
                "parameters": [],
                "type": "function"
              }
            ],
            "groupBy": [
              {
                "property": {
                  "type": "string"
                },
                "type": "groupBy"
              }
            ],
            "limit": 50
          },
          "timeColumn": "time",
          "where": [
            {
              "name": "$__timeFilter",
              "params": [],
              "type": "macro"
            }
          ]
        }
      ],
      "title": "Max query runtime",
      "type": "timeseries"
    },
    {
      "datasource": {
        "type": "postgres",
        "uid": "${DS_PG_METRICS}"
      },
      "description": "Average time spent planning the statement\n\nfor PostgreSQL 13 and higher",
      "fieldConfig": {
        "defaults": {
          "color": {
            "mode": "palette-classic"
          },
          "custom": {
            "axisBorderShow": false,
            "axisCenteredZero": false,
            "axisColorMode": "text",
            "axisLabel": "",
            "axisPlacement": "auto",
            "barAlignment": 0,
            "drawStyle": "line",
            "fillOpacity": 20,
            "gradientMode": "none",
            "hideFrom": {
              "legend": false,
              "tooltip": false,
              "viz": false
            },
            "insertNulls": false,
            "lineInterpolation": "linear",
            "lineWidth": 1,
            "pointSize": 5,
            "scaleDistribution": {
              "type": "linear"
            },
            "showPoints": "never",
            "spanNulls": true,
            "stacking": {
              "group": "A",
              "mode": "none"
            },
            "thresholdsStyle": {
              "mode": "off"
            }
          },
          "mappings": [],
          "thresholds": {
            "mode": "absolute",
            "steps": [
              {
                "color": "green"
              },
              {
                "color": "red",
                "value": 80
              }
            ]
          },
          "unit": "ms"
        },
        "overrides": []
      },
      "gridPos": {
        "h": 9,
        "w": 24,
        "x": 0,
        "y": 32
      },
      "id": 10,
      "options": {
        "legend": {
          "calcs": [
            "max",
            "mean",
            "lastNotNull"
          ],
          "displayMode": "list",
          "placement": "bottom",
          "showLegend": true
        },
        "tooltip": {
          "mode": "multi",
          "sort": "desc"
        }
      },
      "targets": [
        {
          "datasource": {
            "type": "postgres",
            "uid": "${DS_PG_METRICS}"
          },
          "format": "time_series",
          "group": [],
          "metricColumn": "none",
          "rawQuery": true,
          "rawSql": "select\n  $__timeGroup(time, $agg_interval),\n  avg((t - t_lag) / (c - c_lag)) as \" \"\nfrom (\n  select\n    (data->>'total_plan_time')::numeric as t, lag((data->>'total_plan_time')::numeric) over w as t_lag,\n    (data->>'calls')::bigint as c, lag((data->>'calls')::bigint) over w as c_lag,\n    time\n  from stat_statements\n  where dbname = '$dbname' and $__timeFilter(time)\n    and (tag_data->>'queryid')::text = '$queryid'\n  window w as (order by time)\n) x\nwhere c > c_lag\n  and t > t_lag\ngroup by 1\norder by 1;",
          "refId": "A",
          "select": [
            [
              {
                "params": [
                  "value"
                ],
                "type": "column"
              }
            ]
          ],
          "timeColumn": "time",
          "where": [
            {
              "name": "$__timeFilter",
              "params": [],
              "type": "macro"
            }
          ]
        }
      ],
      "title": "Average plan time",
      "type": "timeseries"
    },
    {
      "datasource": {
        "type": "postgres",
        "uid": "${DS_PG_METRICS}"
      },
      "description": "",
      "fieldConfig": {
        "defaults": {
          "color": {
            "mode": "palette-classic"
          },
          "custom": {
            "axisBorderShow": false,
            "axisCenteredZero": false,
            "axisColorMode": "text",
            "axisLabel": "",
            "axisPlacement": "auto",
            "barAlignment": 0,
            "drawStyle": "line",
            "fillOpacity": 20,
            "gradientMode": "none",
            "hideFrom": {
              "legend": false,
              "tooltip": false,
              "viz": false
            },
            "insertNulls": false,
            "lineInterpolation": "linear",
            "lineWidth": 1,
            "pointSize": 5,
            "scaleDistribution": {
              "type": "linear"
            },
            "showPoints": "never",
            "spanNulls": true,
            "stacking": {
              "group": "A",
              "mode": "none"
            },
            "thresholdsStyle": {
              "mode": "off"
            }
          },
          "mappings": [],
          "thresholds": {
            "mode": "absolute",
            "steps": [
              {
                "color": "green"
              },
              {
                "color": "red",
                "value": 80
              }
            ]
          },
          "unit": "short"
        },
        "overrides": []
      },
      "gridPos": {
        "h": 9,
        "w": 24,
        "x": 0,
        "y": 41
      },
      "id": 11,
      "options": {
        "legend": {
          "calcs": [
            "mean"
          ],
          "displayMode": "list",
          "placement": "bottom",
          "showLegend": true
        },
        "tooltip": {
          "mode": "multi",
          "sort": "desc"
        }
      },
      "targets": [
        {
          "datasource": {
            "type": "postgres",
            "uid": "${DS_PG_METRICS}"
          },
          "format": "time_series",
          "group": [],
          "metricColumn": "none",
          "rawQuery": true,
          "rawSql": "select\n  $__timeGroup(time, $agg_interval),\n  avg((c - c_lag) / extract(epoch from time - time_lag)) as \" \"\nfrom (\n  select\n    (data->>'calls')::bigint as c, lag((data->>'calls')::bigint) over w as c_lag,\n    time, lag(time) over w as time_lag\n  from stat_statements\n  where dbname = '$dbname' and $__timeFilter(time)\n    and (tag_data->>'queryid')::text = '$queryid'\n  window w as (order by time)\n) x\nwhere c > c_lag and time > time_lag\ngroup by 1\norder by 1;",
          "refId": "A",
          "select": [
            [
              {
                "params": [
                  "value"
                ],
                "type": "column"
              }
            ]
          ],
          "timeColumn": "time",
          "where": [
            {
              "name": "$__timeFilter",
              "params": [],
              "type": "macro"
            }
          ]
        }
      ],
      "title": "Calls (1s rate)",
      "type": "timeseries"
    },
    {
      "datasource": {
        "type": "postgres",
        "uid": "${DS_PG_METRICS}"
      },
      "description": "",
      "fieldConfig": {
        "defaults": {
          "color": {
            "mode": "palette-classic"
          },
          "custom": {
            "axisBorderShow": false,
            "axisCenteredZero": false,
            "axisColorMode": "text",
            "axisLabel": "",
            "axisPlacement": "auto",
            "barAlignment": 0,
            "drawStyle": "line",
            "fillOpacity": 20,
            "gradientMode": "none",
            "hideFrom": {
              "legend": false,
              "tooltip": false,
              "viz": false
            },
            "insertNulls": false,
            "lineInterpolation": "linear",
            "lineWidth": 1,
            "pointSize": 5,
            "scaleDistribution": {
              "type": "linear"
            },
            "showPoints": "never",
            "spanNulls": true,
            "stacking": {
              "group": "A",
              "mode": "none"
            },
            "thresholdsStyle": {
              "mode": "off"
            }
          },
          "mappings": [],
          "thresholds": {
            "mode": "absolute",
            "steps": [
              {
                "color": "green"
              },
              {
                "color": "red",
                "value": 80
              }
            ]
          },
          "unit": "short"
        },
        "overrides": []
      },
      "gridPos": {
        "h": 9,
        "w": 24,
        "x": 0,
        "y": 50
      },
      "id": 28,
      "options": {
        "legend": {
          "calcs": [
            "mean"
          ],
          "displayMode": "list",
          "placement": "bottom",
          "showLegend": true
        },
        "tooltip": {
          "mode": "multi",
          "sort": "desc"
        }
      },
      "targets": [
        {
          "datasource": {
            "type": "postgres",
            "uid": "${DS_PG_METRICS}"
          },
          "editorMode": "code",
          "format": "time_series",
          "group": [],
          "metricColumn": "none",
          "rawQuery": true,
          "rawSql": "select\n  $__timeGroup(time, $agg_interval),\n  avg((r - r_lag) / extract(epoch from time - time_lag)) as \" \"\nfrom (\n  select\n    (data->>'rows')::bigint as r, lag((data->>'rows')::bigint) over w as r_lag,\n    time, lag(time) over w as time_lag\n  from stat_statements\n  where dbname = '$dbname' and $__timeFilter(time)\n    and (tag_data->>'queryid')::text = '$queryid'\n  window w as (order by time)\n) x\nwhere r > r_lag and time > time_lag\ngroup by 1\norder by 1;",
          "refId": "A",
          "select": [
            [
              {
                "params": [
                  "value"
                ],
                "type": "column"
              }
            ]
          ],
          "sql": {
            "columns": [
              {
                "parameters": [],
                "type": "function"
              }
            ],
            "groupBy": [
              {
                "property": {
                  "type": "string"
                },
                "type": "groupBy"
              }
            ],
            "limit": 50
          },
          "timeColumn": "time",
          "where": [
            {
              "name": "$__timeFilter",
              "params": [],
              "type": "macro"
            }
          ]
        }
      ],
      "title": "Rows (1s rate)",
      "type": "timeseries"
    },
    {
      "datasource": {
        "type": "postgres",
        "uid": "${DS_PG_METRICS}"
      },
      "description": "",
      "fieldConfig": {
        "defaults": {
          "color": {
            "mode": "palette-classic"
          },
          "custom": {
            "axisBorderShow": false,
            "axisCenteredZero": false,
            "axisColorMode": "text",
            "axisLabel": "",
            "axisPlacement": "auto",
            "barAlignment": 0,
            "drawStyle": "line",
            "fillOpacity": 20,
            "gradientMode": "none",
            "hideFrom": {
              "legend": false,
              "tooltip": false,
              "viz": false
            },
            "insertNulls": false,
            "lineInterpolation": "linear",
            "lineWidth": 1,
            "pointSize": 5,
            "scaleDistribution": {
              "type": "linear"
            },
            "showPoints": "never",
            "spanNulls": true,
            "stacking": {
              "group": "A",
              "mode": "none"
            },
            "thresholdsStyle": {
              "mode": "off"
            }
          },
          "mappings": [],
          "thresholds": {
            "mode": "absolute",
            "steps": [
              {
                "color": "green"
              },
              {
                "color": "red",
                "value": 80
              }
            ]
          },
          "unit": "ms"
        },
        "overrides": []
      },
      "gridPos": {
        "h": 9,
        "w": 24,
        "x": 0,
        "y": 59
      },
      "id": 12,
      "options": {
        "legend": {
          "calcs": [
            "mean"
          ],
          "displayMode": "list",
          "placement": "bottom",
          "showLegend": true
        },
        "tooltip": {
          "mode": "multi",
          "sort": "desc"
        }
      },
      "targets": [
        {
          "datasource": {
            "type": "postgres",
            "uid": "${DS_PG_METRICS}"
          },
          "format": "time_series",
          "group": [],
          "metricColumn": "none",
          "rawQuery": true,
          "rawSql": "select\n  $__timeGroup(time, $agg_interval),\n  avg((t - t_lag) / extract(epoch from time - time_lag)) as \" \"\nfrom (\n  select\n    (data->>'total_time')::numeric as t, lag((data->>'total_time')::numeric) over w as t_lag,\n    time, lag(time) over w as time_lag\n  from stat_statements\n  where dbname = '$dbname' and $__timeFilter(time)\n    and (tag_data->>'queryid')::text = '$queryid'\n  window w as (order by time)\n) x\nwhere t > t_lag and time > time_lag\ngroup by 1\norder by 1;",
          "refId": "A",
          "select": [
            [
              {
                "params": [
                  "value"
                ],
                "type": "column"
              }
            ]
          ],
          "timeColumn": "time",
          "where": [
            {
              "name": "$__timeFilter",
              "params": [],
              "type": "macro"
            }
          ]
        }
      ],
      "title": "Total runtime (1s rate)",
      "type": "timeseries"
    },
    {
      "datasource": {
        "type": "postgres",
        "uid": "${DS_PG_METRICS}"
      },
      "description": "Total time spent planning the statement\n\nfor PostgreSQL 13 and higher",
      "fieldConfig": {
        "defaults": {
          "color": {
            "mode": "palette-classic"
          },
          "custom": {
            "axisBorderShow": false,
            "axisCenteredZero": false,
            "axisColorMode": "text",
            "axisLabel": "",
            "axisPlacement": "auto",
            "barAlignment": 0,
            "drawStyle": "line",
            "fillOpacity": 20,
            "gradientMode": "none",
            "hideFrom": {
              "legend": false,
              "tooltip": false,
              "viz": false
            },
            "insertNulls": false,
            "lineInterpolation": "linear",
            "lineWidth": 1,
            "pointSize": 5,
            "scaleDistribution": {
              "type": "linear"
            },
            "showPoints": "never",
            "spanNulls": true,
            "stacking": {
              "group": "A",
              "mode": "none"
            },
            "thresholdsStyle": {
              "mode": "off"
            }
          },
          "mappings": [],
          "thresholds": {
            "mode": "absolute",
            "steps": [
              {
                "color": "green"
              },
              {
                "color": "red",
                "value": 80
              }
            ]
          },
          "unit": "ms"
        },
        "overrides": []
      },
      "gridPos": {
        "h": 9,
        "w": 24,
        "x": 0,
        "y": 68
      },
      "id": 13,
      "options": {
        "legend": {
          "calcs": [
            "mean"
          ],
          "displayMode": "list",
          "placement": "bottom",
          "showLegend": true
        },
        "tooltip": {
          "mode": "multi",
          "sort": "desc"
        }
      },
      "targets": [
        {
          "datasource": {
            "type": "postgres",
            "uid": "${DS_PG_METRICS}"
          },
          "format": "time_series",
          "group": [],
          "metricColumn": "none",
          "rawQuery": true,
          "rawSql": "select\n  $__timeGroup(time, $agg_interval),\n  avg((t - t_lag) / extract(epoch from time - time_lag)) as \" \"\nfrom (\n  select\n    (data->>'total_plan_time')::numeric as t, lag((data->>'total_plan_time')::numeric) over w as t_lag,\n    time, lag(time) over w as time_lag\n  from stat_statements\n  where dbname = '$dbname' and $__timeFilter(time)\n    and (tag_data->>'queryid')::text = '$queryid'\n  window w as (order by time)\n) x\nwhere t > t_lag and time > time_lag\ngroup by 1\norder by 1;",
          "refId": "A",
          "select": [
            [
              {
                "params": [
                  "value"
                ],
                "type": "column"
              }
            ]
          ],
          "timeColumn": "time",
          "where": [
            {
              "name": "$__timeFilter",
              "params": [],
              "type": "macro"
            }
          ]
        }
      ],
      "title": "Total plan time (1s rate)",
      "type": "timeseries"
    },
    {
      "datasource": {
        "type": "postgres",
        "uid": "${DS_PG_METRICS}"
      },
      "description": "",
      "fieldConfig": {
        "defaults": {
          "color": {
            "mode": "palette-classic"
          },
          "custom": {
            "axisBorderShow": false,
            "axisCenteredZero": false,
            "axisColorMode": "text",
            "axisLabel": "",
            "axisPlacement": "auto",
            "barAlignment": 0,
            "drawStyle": "line",
            "fillOpacity": 20,
            "gradientMode": "none",
            "hideFrom": {
              "legend": false,
              "tooltip": false,
              "viz": false
            },
            "insertNulls": false,
            "lineInterpolation": "linear",
            "lineWidth": 1,
            "pointSize": 5,
            "scaleDistribution": {
              "type": "linear"
            },
            "showPoints": "never",
            "spanNulls": true,
            "stacking": {
              "group": "A",
              "mode": "none"
            },
            "thresholdsStyle": {
              "mode": "off"
            }
          },
          "mappings": [],
          "max": 1,
          "thresholds": {
            "mode": "absolute",
            "steps": [
              {
                "color": "green"
              },
              {
                "color": "red",
                "value": 80
              }
            ]
          },
          "unit": "percentunit"
        },
        "overrides": []
      },
      "gridPos": {
        "h": 9,
        "w": 24,
        "x": 0,
        "y": 77
      },
      "id": 14,
      "options": {
        "legend": {
          "calcs": [
            "mean"
          ],
          "displayMode": "list",
          "placement": "bottom",
          "showLegend": true
        },
        "tooltip": {
          "mode": "multi",
          "sort": "desc"
        }
      },
      "targets": [
        {
          "datasource": {
            "type": "postgres",
            "uid": "${DS_PG_METRICS}"
          },
          "format": "time_series",
          "group": [],
          "metricColumn": "none",
          "rawQuery": true,
          "rawSql": "select\n  $__timeGroup(time, $agg_interval),\n  avg((h - h_lag)::numeric / ((h - h_lag) + (r - r_lag))) as \" \"\nfrom (\n  select\n    (data->>'shared_blks_hit')::bigint as h, lag((data->>'shared_blks_hit')::bigint) over w as h_lag,\n    (data->>'shared_blks_read')::bigint as r, lag((data->>'shared_blks_read')::bigint) over w as r_lag,\n    time\n  from stat_statements\n  where dbname = '$dbname' and $__timeFilter(time)\n    and (tag_data->>'queryid')::text = '$queryid'\n  window w as (order by time)\n) x\nwhere (h > h_lag or r > r_lag)\n  and (h - h_lag) + (r - r_lag) > 0\ngroup by 1\norder by 1;",
          "refId": "A",
          "select": [
            [
              {
                "params": [
                  "value"
                ],
                "type": "column"
              }
            ]
          ],
          "timeColumn": "time",
          "where": [
            {
              "name": "$__timeFilter",
              "params": [],
              "type": "macro"
            }
          ]
        }
      ],
      "title": "Shared Buffers Hit Ratio",
      "type": "timeseries"
    },
    {
      "datasource": {
        "type": "postgres",
        "uid": "${DS_PG_METRICS}"
      },
      "description": "",
      "fieldConfig": {
        "defaults": {
          "color": {
            "mode": "palette-classic"
          },
          "custom": {
            "axisBorderShow": false,
            "axisCenteredZero": false,
            "axisColorMode": "text",
            "axisLabel": "",
            "axisPlacement": "auto",
            "barAlignment": 0,
            "drawStyle": "line",
            "fillOpacity": 20,
            "gradientMode": "none",
            "hideFrom": {
              "legend": false,
              "tooltip": false,
              "viz": false
            },
            "insertNulls": false,
            "lineInterpolation": "linear",
            "lineWidth": 1,
            "pointSize": 5,
            "scaleDistribution": {
              "type": "linear"
            },
            "showPoints": "never",
            "spanNulls": true,
            "stacking": {
              "group": "A",
              "mode": "none"
            },
            "thresholdsStyle": {
              "mode": "off"
            }
          },
          "mappings": [],
          "thresholds": {
            "mode": "absolute",
            "steps": [
              {
                "color": "green"
              },
              {
                "color": "red",
                "value": 80
              }
            ]
          },
          "unit": "short"
        },
        "overrides": []
      },
      "gridPos": {
        "h": 9,
        "w": 24,
        "x": 0,
        "y": 86
      },
      "id": 15,
      "options": {
        "legend": {
          "calcs": [
            "mean"
          ],
          "displayMode": "list",
          "placement": "bottom",
          "showLegend": true
        },
        "tooltip": {
          "mode": "multi",
          "sort": "desc"
        }
      },
      "targets": [
        {
          "datasource": {
            "type": "postgres",
            "uid": "${DS_PG_METRICS}"
          },
          "format": "time_series",
          "group": [],
          "metricColumn": "none",
          "rawQuery": true,
          "rawSql": "select\n  $__timeGroup(time, $agg_interval),\n  avg(nullif(w - w_lag, 0) / extract(epoch from time - time_lag)) as \"shared_blks_written\",\n  avg(nullif(r - r_lag, 0) / extract(epoch from time - time_lag)) as \"shared_blks_read\",\n  avg(nullif(h - h_lag, 0) / extract(epoch from time - time_lag)) as \"shared_blks_hit\",\n  avg(nullif(d - d_lag, 0) / extract(epoch from time - time_lag)) as \"shared_blks_dirtied\"\nfrom (\n  select\n    (data->>'shared_blks_written')::bigint as w, lag((data->>'shared_blks_written')::bigint) over w as w_lag,\n    (data->>'shared_blks_read')::bigint as r, lag((data->>'shared_blks_read')::bigint) over w as r_lag,\n    (data->>'shared_blks_hit')::bigint as h, lag((data->>'shared_blks_hit')::bigint) over w as h_lag,\n    (data->>'shared_blks_dirtied')::bigint as d, lag((data->>'shared_blks_dirtied')::bigint) over w as d_lag,\n    time, lag(time) over w as time_lag\n  from stat_statements\n  where dbname = '$dbname' and $__timeFilter(time)\n    and (tag_data->>'queryid')::text = '$queryid'\n  window w as (order by time)\n) x\nwhere time > time_lag\ngroup by 1\norder by 1;",
          "refId": "A",
          "select": [
            [
              {
                "params": [
                  "value"
                ],
                "type": "column"
              }
            ]
          ],
          "timeColumn": "time",
          "where": [
            {
              "name": "$__timeFilter",
              "params": [],
              "type": "macro"
            }
          ]
        }
      ],
      "title": "\"shared_blks_*\" info in blocks (1s rate)",
      "type": "timeseries"
    },
    {
      "datasource": {
        "type": "postgres",
        "uid": "${DS_PG_METRICS}"
      },
      "description": "",
      "fieldConfig": {
        "defaults": {
          "color": {
            "mode": "palette-classic"
          },
          "custom": {
            "axisBorderShow": false,
            "axisCenteredZero": false,
            "axisColorMode": "text",
            "axisLabel": "",
            "axisPlacement": "auto",
            "barAlignment": 0,
            "drawStyle": "line",
            "fillOpacity": 20,
            "gradientMode": "none",
            "hideFrom": {
              "legend": false,
              "tooltip": false,
              "viz": false
            },
            "insertNulls": false,
            "lineInterpolation": "linear",
            "lineWidth": 1,
            "pointSize": 5,
            "scaleDistribution": {
              "type": "linear"
            },
            "showPoints": "never",
            "spanNulls": true,
            "stacking": {
              "group": "A",
              "mode": "none"
            },
            "thresholdsStyle": {
              "mode": "off"
            }
          },
          "mappings": [],
          "thresholds": {
            "mode": "absolute",
            "steps": [
              {
                "color": "green"
              },
              {
                "color": "red",
                "value": 80
              }
            ]
          },
          "unit": "bytes"
        },
        "overrides": []
      },
      "gridPos": {
        "h": 9,
        "w": 24,
        "x": 0,
        "y": 95
      },
      "id": 16,
      "options": {
        "legend": {
          "calcs": [
            "mean"
          ],
          "displayMode": "list",
          "placement": "bottom",
          "showLegend": true
        },
        "tooltip": {
          "mode": "multi",
          "sort": "desc"
        }
      },
      "targets": [
        {
          "datasource": {
            "type": "postgres",
            "uid": "${DS_PG_METRICS}"
          },
          "format": "time_series",
          "group": [],
          "metricColumn": "none",
          "rawQuery": true,
          "rawSql": "select\n  $__timeGroup(time, $agg_interval),\n  avg(nullif(w - w_lag, 0) / extract(epoch from time - time_lag)) as \"shared_blks_written\",\n  avg(nullif(r - r_lag, 0) / extract(epoch from time - time_lag)) as \"shared_blks_read\",\n  avg(nullif(h - h_lag, 0) / extract(epoch from time - time_lag)) as \"shared_blks_hit\",\n  avg(nullif(d - d_lag, 0) / extract(epoch from time - time_lag)) as \"shared_blks_dirtied\"\nfrom (\n  select\n    (data->>'shared_blks_written_bytes')::bigint as w, lag((data->>'shared_blks_written_bytes')::bigint) over w as w_lag,\n    (data->>'shared_blks_read_bytes')::bigint as r, lag((data->>'shared_blks_read_bytes')::bigint) over w as r_lag,\n    (data->>'shared_blks_hit_bytes')::bigint as h, lag((data->>'shared_blks_hit_bytes')::bigint) over w as h_lag,\n    (data->>'shared_blks_dirtied_bytes')::bigint as d, lag((data->>'shared_blks_dirtied_bytes')::bigint) over w as d_lag,\n    time, lag(time) over w as time_lag\n  from stat_statements\n  where dbname = '$dbname' and $__timeFilter(time)\n    and (tag_data->>'queryid')::text = '$queryid'\n  window w as (order by time)\n) x\nwhere time > time_lag\ngroup by 1\norder by 1;",
          "refId": "A",
          "select": [
            [
              {
                "params": [
                  "value"
                ],
                "type": "column"
              }
            ]
          ],
          "timeColumn": "time",
          "where": [
            {
              "name": "$__timeFilter",
              "params": [],
              "type": "macro"
            }
          ]
        }
      ],
      "title": "\"shared_blks_*\" info in bytes (1s rate)",
      "type": "timeseries"
    },
    {
      "datasource": {
        "type": "postgres",
        "uid": "${DS_PG_METRICS}"
      },
      "description": "",
      "fieldConfig": {
        "defaults": {
          "color": {
            "mode": "palette-classic"
          },
          "custom": {
            "axisBorderShow": false,
            "axisCenteredZero": false,
            "axisColorMode": "text",
            "axisLabel": "",
            "axisPlacement": "auto",
            "barAlignment": 0,
            "drawStyle": "line",
            "fillOpacity": 20,
            "gradientMode": "none",
            "hideFrom": {
              "legend": false,
              "tooltip": false,
              "viz": false
            },
            "insertNulls": false,
            "lineInterpolation": "linear",
            "lineWidth": 1,
            "pointSize": 5,
            "scaleDistribution": {
              "type": "linear"
            },
            "showPoints": "never",
            "spanNulls": true,
            "stacking": {
              "group": "A",
              "mode": "none"
            },
            "thresholdsStyle": {
              "mode": "off"
            }
          },
          "mappings": [],
          "thresholds": {
            "mode": "absolute",
            "steps": [
              {
                "color": "green"
              },
              {
                "color": "red",
                "value": 80
              }
            ]
          },
          "unit": "short"
        },
        "overrides": []
      },
      "gridPos": {
        "h": 9,
        "w": 24,
        "x": 0,
        "y": 104
      },
      "id": 17,
      "options": {
        "legend": {
          "calcs": [
            "mean"
          ],
          "displayMode": "list",
          "placement": "bottom",
          "showLegend": true
        },
        "tooltip": {
          "mode": "multi",
          "sort": "desc"
        }
      },
      "targets": [
        {
          "datasource": {
            "type": "postgres",
            "uid": "${DS_PG_METRICS}"
          },
          "format": "time_series",
          "group": [],
          "metricColumn": "none",
          "rawQuery": true,
          "rawSql": "select\n  $__timeGroup(time, $agg_interval),\n  avg(nullif(w - w_lag, 0) / extract(epoch from time - time_lag)) as \"temp_blks_written\",\n  avg(nullif(r - r_lag, 0) / extract(epoch from time - time_lag)) as \"temp_blks_read\"\nfrom (\n  select\n    (data->>'temp_blks_written')::bigint as w, lag((data->>'temp_blks_written')::bigint) over w as w_lag,\n    (data->>'temp_blks_read')::bigint as r, lag((data->>'temp_blks_read')::bigint) over w as r_lag,\n    time, lag(time) over w as time_lag\n  from stat_statements\n  where dbname = '$dbname' and $__timeFilter(time)\n    and (tag_data->>'queryid')::text = '$queryid'\n  window w as (order by time)\n) x\nwhere time > time_lag\ngroup by 1\norder by 1;",
          "refId": "A",
          "select": [
            [
              {
                "params": [
                  "value"
                ],
                "type": "column"
              }
            ]
          ],
          "timeColumn": "time",
          "where": [
            {
              "name": "$__timeFilter",
              "params": [],
              "type": "macro"
            }
          ]
        }
      ],
      "title": "Temp Blocks Read/Write rate (1s rate)",
      "type": "timeseries"
    },
    {
      "datasource": {
        "type": "postgres",
        "uid": "${DS_PG_METRICS}"
      },
      "description": "FYI - blk_write_time can easily be 0 as normally changes happen only in the shared buffers and are written out by the checkpointer / background writer.",
      "fieldConfig": {
        "defaults": {
          "color": {
            "mode": "palette-classic"
          },
          "custom": {
            "axisBorderShow": false,
            "axisCenteredZero": false,
            "axisColorMode": "text",
            "axisLabel": "",
            "axisPlacement": "auto",
            "barAlignment": 0,
            "drawStyle": "line",
            "fillOpacity": 20,
            "gradientMode": "none",
            "hideFrom": {
              "legend": false,
              "tooltip": false,
              "viz": false
            },
            "insertNulls": false,
            "lineInterpolation": "linear",
            "lineWidth": 1,
            "pointSize": 5,
            "scaleDistribution": {
              "type": "linear"
            },
            "showPoints": "never",
            "spanNulls": true,
            "stacking": {
              "group": "A",
              "mode": "none"
            },
            "thresholdsStyle": {
              "mode": "off"
            }
          },
          "mappings": [],
          "thresholds": {
            "mode": "absolute",
            "steps": [
              {
                "color": "green"
              },
              {
                "color": "red",
                "value": 80
              }
            ]
          },
          "unit": "ms"
        },
        "overrides": []
      },
      "gridPos": {
        "h": 9,
        "w": 24,
        "x": 0,
        "y": 113
      },
      "id": 18,
      "options": {
        "legend": {
          "calcs": [
            "mean"
          ],
          "displayMode": "list",
          "placement": "bottom",
          "showLegend": true
        },
        "tooltip": {
          "mode": "multi",
          "sort": "desc"
        }
      },
      "targets": [
        {
          "datasource": {
            "type": "postgres",
            "uid": "${DS_PG_METRICS}"
          },
          "format": "time_series",
          "group": [],
          "metricColumn": "none",
          "rawQuery": true,
          "rawSql": "select\n  $__timeGroup(time, $agg_interval),\n  avg(nullif(w - w_lag, 0) / extract(epoch from time - time_lag)) as \"blk_write_time\",\n  avg(nullif(r - r_lag, 0) / extract(epoch from time - time_lag)) as \"blk_read_time\"\nfrom (\n  select\n    (data->>'blk_write_time')::numeric as w, lag((data->>'blk_write_time')::numeric) over w as w_lag,\n    (data->>'blk_read_time')::numeric as r, lag((data->>'blk_read_time')::numeric) over w as r_lag,\n    time, lag(time) over w as time_lag\n  from stat_statements\n  where dbname = '$dbname' and $__timeFilter(time)\n    and (tag_data->>'queryid')::text = '$queryid'\n  window w as (order by time)\n) x\nwhere time > time_lag\ngroup by 1\norder by 1;",
          "refId": "A",
          "select": [
            [
              {
                "params": [
                  "value"
                ],
                "type": "column"
              }
            ]
          ],
          "timeColumn": "time",
          "where": [
            {
              "name": "$__timeFilter",
              "params": [],
              "type": "macro"
            }
          ]
        }
      ],
      "title": "Backend block Read/Write time (1s rate)",
      "type": "timeseries"
    },
    {
      "datasource": {
        "type": "postgres",
        "uid": "${DS_PG_METRICS}"
      },
      "description": "",
      "fieldConfig": {
        "defaults": {
          "color": {
            "mode": "palette-classic"
          },
          "custom": {
            "axisBorderShow": false,
            "axisCenteredZero": false,
            "axisColorMode": "text",
            "axisLabel": "",
            "axisPlacement": "auto",
            "barAlignment": 0,
            "drawStyle": "line",
            "fillOpacity": 20,
            "gradientMode": "none",
            "hideFrom": {
              "legend": false,
              "tooltip": false,
              "viz": false
            },
            "insertNulls": false,
            "lineInterpolation": "linear",
            "lineWidth": 1,
            "pointSize": 5,
            "scaleDistribution": {
              "type": "linear"
            },
            "showPoints": "never",
            "spanNulls": true,
            "stacking": {
              "group": "A",
              "mode": "none"
            },
            "thresholdsStyle": {
              "mode": "off"
            }
          },
          "mappings": [],
          "max": 1,
          "thresholds": {
            "mode": "absolute",
            "steps": [
              {
                "color": "green"
              },
              {
                "color": "red",
                "value": 80
              }
            ]
          },
          "unit": "percentunit"
        },
        "overrides": []
      },
      "gridPos": {
        "h": 9,
        "w": 24,
        "x": 0,
        "y": 122
      },
      "id": 19,
      "options": {
        "legend": {
          "calcs": [
            "mean"
          ],
          "displayMode": "list",
          "placement": "bottom",
          "showLegend": true
        },
        "tooltip": {
          "mode": "multi",
          "sort": "desc"
        }
      },
      "targets": [
        {
          "datasource": {
            "type": "postgres",
            "uid": "${DS_PG_METRICS}"
          },
          "format": "time_series",
          "group": [],
          "metricColumn": "none",
          "rawQuery": true,
          "rawSql": "select\n  $__timeGroup(time, $agg_interval),\n  avg(((w - w_lag) + (r - r_lag)) / (t - t_lag)) as \" \"\nfrom (\n  select\n    (data->>'blk_write_time')::numeric as w, lag((data->>'blk_write_time')::numeric) over w as w_lag,\n    (data->>'blk_read_time')::numeric as r, lag((data->>'blk_read_time')::numeric) over w as r_lag,\n    (data->>'total_time')::numeric as t, lag((data->>'total_time')::numeric) over w as t_lag,\n    time\n  from stat_statements\n  where dbname = '$dbname' and $__timeFilter(time)\n    and (tag_data->>'queryid')::text = '$queryid'\n  window w as (order by time)\n) x\nwhere (w > w_lag or r > r_lag)\n  and t > t_lag\ngroup by 1\norder by 1;",
          "refId": "A",
          "select": [
            [
              {
                "params": [
                  "value"
                ],
                "type": "column"
              }
            ]
          ],
          "timeColumn": "time",
          "where": [
            {
              "name": "$__timeFilter",
              "params": [],
              "type": "macro"
            }
          ]
        }
      ],
      "title": "% of total_time spent in IO",
      "type": "timeseries"
    },
    {
      "datasource": {
        "type": "postgres",
        "uid": "${DS_PG_METRICS}"
      },
      "description": "Total amount of WAL generated by the statement in bytes\n\nfor PostgreSQL 13 and higher",
      "fieldConfig": {
        "defaults": {
          "color": {
            "mode": "palette-classic"
          },
          "custom": {
            "axisBorderShow": false,
            "axisCenteredZero": false,
            "axisColorMode": "text",
            "axisLabel": "",
            "axisPlacement": "auto",
            "barAlignment": 0,
            "drawStyle": "line",
            "fillOpacity": 20,
            "gradientMode": "none",
            "hideFrom": {
              "legend": false,
              "tooltip": false,
              "viz": false
            },
            "insertNulls": false,
            "lineInterpolation": "linear",
            "lineWidth": 1,
            "pointSize": 5,
            "scaleDistribution": {
              "type": "linear"
            },
            "showPoints": "never",
            "spanNulls": true,
            "stacking": {
              "group": "A",
              "mode": "none"
            },
            "thresholdsStyle": {
              "mode": "off"
            }
          },
          "mappings": [],
          "thresholds": {
            "mode": "absolute",
            "steps": [
              {
                "color": "green"
              },
              {
                "color": "red",
                "value": 80
              }
            ]
          },
          "unit": "bytes"
        },
        "overrides": []
      },
      "gridPos": {
        "h": 9,
        "w": 24,
        "x": 0,
        "y": 131
      },
      "id": 20,
      "options": {
        "legend": {
          "calcs": [
            "mean"
          ],
          "displayMode": "list",
          "placement": "bottom",
          "showLegend": true
        },
        "tooltip": {
          "mode": "multi",
          "sort": "desc"
        }
      },
      "targets": [
        {
          "datasource": {
            "type": "postgres",
            "uid": "${DS_PG_METRICS}"
          },
          "format": "time_series",
          "group": [],
          "metricColumn": "none",
          "rawQuery": true,
          "rawSql": "select\n  $__timeGroup(time, $agg_interval),\n  avg((w - w_lag) / extract(epoch from time - time_lag)) as \" \"\nfrom (\n  select\n    (data->>'wal_bytes')::bigint as w, lag((data->>'wal_bytes')::bigint) over w as w_lag,\n    time, lag(time) over w as time_lag\n  from stat_statements\n  where dbname = '$dbname' and $__timeFilter(time)\n    and (tag_data->>'queryid')::text = '$queryid'\n  window w as (order by time)\n) x\nwhere w > w_lag and time > time_lag\ngroup by 1\norder by 1;",
          "refId": "A",
          "select": [
            [
              {
                "params": [
                  "value"
                ],
                "type": "column"
              }
            ]
          ],
          "timeColumn": "time",
          "where": [
            {
              "name": "$__timeFilter",
              "params": [],
              "type": "macro"
            }
          ]
        }
      ],
      "title": "wal_bytes (1s rate)",
      "type": "timeseries"
    },
    {
      "datasource": {
        "type": "postgres",
        "uid": "${DS_PG_METRICS}"
      },
      "description": "Total number of WAL full page images generated by the statement\n\nfor PostgreSQL 13 and higher",
      "fieldConfig": {
        "defaults": {
          "color": {
            "mode": "palette-classic"
          },
          "custom": {
            "axisBorderShow": false,
            "axisCenteredZero": false,
            "axisColorMode": "text",
            "axisLabel": "",
            "axisPlacement": "auto",
            "barAlignment": 0,
            "drawStyle": "line",
            "fillOpacity": 20,
            "gradientMode": "none",
            "hideFrom": {
              "legend": false,
              "tooltip": false,
              "viz": false
            },
            "insertNulls": false,
            "lineInterpolation": "linear",
            "lineWidth": 1,
            "pointSize": 5,
            "scaleDistribution": {
              "type": "linear"
            },
            "showPoints": "never",
            "spanNulls": true,
            "stacking": {
              "group": "A",
              "mode": "none"
            },
            "thresholdsStyle": {
              "mode": "off"
            }
          },
          "mappings": [],
          "thresholds": {
            "mode": "absolute",
            "steps": [
              {
                "color": "green"
              },
              {
                "color": "red",
                "value": 80
              }
            ]
          },
          "unit": "short"
        },
        "overrides": []
      },
      "gridPos": {
        "h": 9,
        "w": 24,
        "x": 0,
        "y": 140
      },
      "id": 21,
      "options": {
        "legend": {
          "calcs": [
            "mean"
          ],
          "displayMode": "list",
          "placement": "bottom",
          "showLegend": true
        },
        "tooltip": {
          "mode": "multi",
          "sort": "desc"
        }
      },
      "targets": [
        {
          "datasource": {
            "type": "postgres",
            "uid": "${DS_PG_METRICS}"
          },
          "format": "time_series",
          "group": [],
          "metricColumn": "none",
          "rawQuery": true,
          "rawSql": "select\n  $__timeGroup(time, $agg_interval),\n  avg((w - w_lag) / extract(epoch from time - time_lag)) as \" \"\nfrom (\n  select\n    (data->>'wal_fpi')::bigint as w, lag((data->>'wal_fpi')::bigint) over w as w_lag,\n    time, lag(time) over w as time_lag\n  from stat_statements\n  where dbname = '$dbname' and $__timeFilter(time)\n    and (tag_data->>'queryid')::text = '$queryid'\n  window w as (order by time)\n) x\nwhere w > w_lag and time > time_lag\ngroup by 1\norder by 1;",
          "refId": "A",
          "select": [
            [
              {
                "params": [
                  "value"
                ],
                "type": "column"
              }
            ]
          ],
          "timeColumn": "time",
          "where": [
            {
              "name": "$__timeFilter",
              "params": [],
              "type": "macro"
            }
          ]
        }
      ],
      "title": "wal_fpi (1s rate)",
      "type": "timeseries"
    },
    {
      "collapsed": false,
      "gridPos": {
        "h": 1,
        "w": 24,
        "x": 0,
        "y": 149
      },
      "id": 24,
      "panels": [],
      "title": "pg_stat_kcache",
      "type": "row"
    },
    {
      "datasource": {
        "type": "postgres",
        "uid": "${DS_PG_METRICS}"
      },
      "description": "reads - Number of bytes read by the filesystem layer.\n\nwrites - Number of bytes written by the filesystem layer.\n\n(\"pg_stat_kcache\" extension is required)",
      "fieldConfig": {
        "defaults": {
          "color": {
            "mode": "palette-classic"
          },
          "custom": {
            "axisBorderShow": false,
            "axisCenteredZero": false,
            "axisColorMode": "text",
            "axisLabel": "",
            "axisPlacement": "auto",
            "barAlignment": 0,
            "drawStyle": "line",
            "fillOpacity": 20,
            "gradientMode": "none",
            "hideFrom": {
              "legend": false,
              "tooltip": false,
              "viz": false
            },
            "insertNulls": false,
            "lineInterpolation": "linear",
            "lineWidth": 1,
            "pointSize": 5,
            "scaleDistribution": {
              "type": "linear"
            },
            "showPoints": "never",
            "spanNulls": true,
            "stacking": {
              "group": "A",
              "mode": "none"
            },
            "thresholdsStyle": {
              "mode": "off"
            }
          },
          "decimals": 1,
          "mappings": [],
          "thresholds": {
            "mode": "absolute",
            "steps": [
              {
                "color": "green"
              },
              {
                "color": "red",
                "value": 80
              }
            ]
          },
          "unit": "bytes"
        },
        "overrides": [
          {
            "matcher": {
              "id": "byName",
              "options": "writes"
            },
            "properties": [
              {
                "id": "color",
                "value": {
                  "fixedColor": "semi-dark-orange",
                  "mode": "fixed"
                }
              }
            ]
          }
        ]
      },
      "gridPos": {
        "h": 9,
        "w": 24,
        "x": 0,
        "y": 150
      },
      "id": 22,
      "options": {
        "legend": {
          "calcs": [
            "mean",
            "lastNotNull"
          ],
          "displayMode": "list",
          "placement": "bottom",
          "showLegend": true
        },
        "tooltip": {
          "mode": "multi",
          "sort": "desc"
        }
      },
      "targets": [
        {
          "datasource": {
            "type": "postgres",
            "uid": "${DS_PG_METRICS}"
          },
          "format": "time_series",
          "group": [],
          "metricColumn": "none",
          "rawQuery": true,
          "rawSql": "select\n  $__timeGroup(time, $agg_interval),\n  avg(nullif(r - r_lag, 0) / extract(epoch from time - time_lag)) as \"reads\",\n  avg(nullif(w - w_lag, 0) / extract(epoch from time - time_lag)) as \"writes\"\nfrom (\n  select\n    (data->>'reads')::bigint as r, lag((data->>'reads')::bigint) over w as r_lag,\n    (data->>'writes')::bigint as w, lag((data->>'writes')::bigint) over w as w_lag,\n    time, lag(time) over w as time_lag\n  from kcache\n  where dbname = '$dbname' and $__timeFilter(time)\n    and (tag_data->>'queryid')::text = '$queryid'\n  window w as (order by time)\n) x\nwhere time > time_lag\ngroup by 1\norder by 1;",
          "refId": "A",
          "select": [
            [
              {
                "params": [
                  "value"
                ],
                "type": "column"
              }
            ]
          ],
          "timeColumn": "time",
          "where": [
            {
              "name": "$__timeFilter",
              "params": [],
              "type": "macro"
            }
          ]
        }
      ],
      "title": "Number of bytes reads/writes (1s rate)",
      "type": "timeseries"
    },
    {
      "datasource": {
        "type": "postgres",
        "uid": "${DS_PG_METRICS}"
      },
      "description": "user_time - User CPU time used.\n\nsystem_time - System CPU time use.\n\n(\"pg_stat_kcache\" extension is required)",
      "fieldConfig": {
        "defaults": {
          "color": {
            "mode": "palette-classic"
          },
          "custom": {
            "axisBorderShow": false,
            "axisCenteredZero": false,
            "axisColorMode": "text",
            "axisLabel": "",
            "axisPlacement": "auto",
            "barAlignment": 0,
            "drawStyle": "line",
            "fillOpacity": 20,
            "gradientMode": "none",
            "hideFrom": {
              "legend": false,
              "tooltip": false,
              "viz": false
            },
            "insertNulls": false,
            "lineInterpolation": "linear",
            "lineWidth": 1,
            "pointSize": 5,
            "scaleDistribution": {
              "type": "linear"
            },
            "showPoints": "never",
            "spanNulls": true,
            "stacking": {
              "group": "A",
              "mode": "none"
            },
            "thresholdsStyle": {
              "mode": "off"
            }
          },
          "decimals": 1,
          "mappings": [],
          "thresholds": {
            "mode": "absolute",
            "steps": [
              {
                "color": "green"
              },
              {
                "color": "red",
                "value": 80
              }
            ]
          },
          "unit": "s"
        },
        "overrides": [
          {
            "matcher": {
              "id": "byName",
              "options": "system_time"
            },
            "properties": [
              {
                "id": "color",
                "value": {
                  "fixedColor": "semi-dark-blue",
                  "mode": "fixed"
                }
              }
            ]
          }
        ]
      },
      "gridPos": {
        "h": 9,
        "w": 24,
        "x": 0,
        "y": 159
      },
      "id": 25,
      "options": {
        "legend": {
          "calcs": [
            "mean",
            "lastNotNull",
            "max"
          ],
          "displayMode": "list",
          "placement": "bottom",
          "showLegend": true
        },
        "tooltip": {
          "mode": "multi",
          "sort": "desc"
        }
      },
      "targets": [
        {
          "datasource": {
            "type": "postgres",
            "uid": "${DS_PG_METRICS}"
          },
          "format": "time_series",
          "group": [],
          "metricColumn": "none",
          "rawQuery": true,
          "rawSql": "select\n  $__timeGroup(time, $agg_interval),\n  avg(nullif(u - u_lag, 0) / extract(epoch from time - time_lag)) as \"user_time\",\n  avg(nullif(s - s_lag, 0) / extract(epoch from time - time_lag)) as \"system_time\"\nfrom (\n  select\n    (data->>'user_time')::numeric as u, lag((data->>'user_time')::numeric) over w as u_lag,\n    (data->>'system_time')::numeric as s, lag((data->>'system_time')::numeric) over w as s_lag,\n    time, lag(time) over w as time_lag\n  from kcache\n  where dbname = '$dbname' and $__timeFilter(time)\n    and (tag_data->>'queryid')::text = '$queryid'\n  window w as (order by time)\n) x\nwhere time > time_lag\ngroup by 1\norder by 1;",
          "refId": "A",
          "select": [
            [
              {
                "params": [
                  "value"
                ],
                "type": "column"
              }
            ]
          ],
          "timeColumn": "time",
          "where": [
            {
              "name": "$__timeFilter",
              "params": [],
              "type": "macro"
            }
          ]
        }
      ],
      "title": "CPU time (1s rate)",
      "type": "timeseries"
    },
    {
      "datasource": {
        "type": "postgres",
        "uid": "${DS_PG_METRICS}"
      },
      "description": "nvcsws - Number of voluntary context switches.\n\nnivcsws - Number of involuntary context switches.\n\n(\"pg_stat_kcache\" extension is required)\n\nThe more the context switches, the slower the system gets.",
      "fieldConfig": {
        "defaults": {
          "color": {
            "mode": "palette-classic"
          },
          "custom": {
            "axisBorderShow": false,
            "axisCenteredZero": false,
            "axisColorMode": "text",
            "axisLabel": "",
            "axisPlacement": "auto",
            "barAlignment": 0,
            "drawStyle": "line",
            "fillOpacity": 20,
            "gradientMode": "none",
            "hideFrom": {
              "legend": false,
              "tooltip": false,
              "viz": false
            },
            "insertNulls": false,
            "lineInterpolation": "linear",
            "lineWidth": 1,
            "pointSize": 5,
            "scaleDistribution": {
              "type": "linear"
            },
            "showPoints": "never",
            "spanNulls": true,
            "stacking": {
              "group": "A",
              "mode": "none"
            },
            "thresholdsStyle": {
              "mode": "off"
            }
          },
          "mappings": [],
          "thresholds": {
            "mode": "absolute",
            "steps": [
              {
                "color": "green"
              },
              {
                "color": "red",
                "value": 80
              }
            ]
          },
          "unit": "short"
        },
        "overrides": [
          {
            "matcher": {
              "id": "byName",
              "options": "voluntary"
            },
            "properties": [
              {
                "id": "color",
                "value": {
                  "fixedColor": "light-orange",
                  "mode": "fixed"
                }
              }
            ]
          },
          {
            "matcher": {
              "id": "byName",
              "options": "involuntary"
            },
            "properties": [
              {
                "id": "color",
                "value": {
                  "fixedColor": "semi-dark-red",
                  "mode": "fixed"
                }
              }
            ]
          }
        ]
      },
      "gridPos": {
        "h": 9,
        "w": 24,
        "x": 0,
        "y": 168
      },
      "id": 26,
      "options": {
        "legend": {
          "calcs": [
            "mean",
            "lastNotNull",
            "max"
          ],
          "displayMode": "list",
          "placement": "bottom",
          "showLegend": true
        },
        "tooltip": {
          "mode": "multi",
          "sort": "desc"
        }
      },
      "targets": [
        {
          "datasource": {
            "type": "postgres",
            "uid": "${DS_PG_METRICS}"
          },
          "format": "time_series",
          "group": [],
          "metricColumn": "none",
          "rawQuery": true,
          "rawSql": "select\n  $__timeGroup(time, $agg_interval),\n  avg(nullif(v - v_lag, 0) / extract(epoch from time - time_lag)) as \"voluntary\",\n  avg(nullif(i - i_lag, 0) / extract(epoch from time - time_lag)) as \"involuntary\"\nfrom (\n  select\n    (data->>'nvcsws')::bigint as v, lag((data->>'nvcsws')::bigint) over w as v_lag,\n    (data->>'nivcsws')::bigint as i, lag((data->>'nivcsws')::bigint) over w as i_lag,\n    time, lag(time) over w as time_lag\n  from kcache\n  where dbname = '$dbname' and $__timeFilter(time)\n    and (tag_data->>'queryid')::text = '$queryid'\n  window w as (order by time)\n) x\nwhere time > time_lag\ngroup by 1\norder by 1;",
          "refId": "A",
          "select": [
            [
              {
                "params": [
                  "value"
                ],
                "type": "column"
              }
            ]
          ],
          "timeColumn": "time",
          "where": [
            {
              "name": "$__timeFilter",
              "params": [],
              "type": "macro"
            }
          ]
        }
      ],
      "title": "Context switches (1s rate)",
      "type": "timeseries"
    },
    {
      "datasource": {
        "type": "postgres",
        "uid": "${DS_PG_METRICS}"
      },
      "description": "minflts - Number of page reclaims (soft page faults).\n\nmajflts - Number of page faults (hard page faults).\n\n(\"pg_stat_kcache\" extension is required)",
      "fieldConfig": {
        "defaults": {
          "color": {
            "mode": "palette-classic"
          },
          "custom": {
            "axisBorderShow": false,
            "axisCenteredZero": false,
            "axisColorMode": "text",
            "axisLabel": "",
            "axisPlacement": "auto",
            "barAlignment": 0,
            "drawStyle": "line",
            "fillOpacity": 20,
            "gradientMode": "none",
            "hideFrom": {
              "legend": false,
              "tooltip": false,
              "viz": false
            },
            "insertNulls": false,
            "lineInterpolation": "linear",
            "lineWidth": 1,
            "pointSize": 5,
            "scaleDistribution": {
              "type": "linear"
            },
            "showPoints": "never",
            "spanNulls": true,
            "stacking": {
              "group": "A",
              "mode": "none"
            },
            "thresholdsStyle": {
              "mode": "off"
            }
          },
          "mappings": [],
          "thresholds": {
            "mode": "absolute",
            "steps": [
              {
                "color": "green"
              },
              {
                "color": "red",
                "value": 80
              }
            ]
          },
          "unit": "short"
        },
        "overrides": [
          {
            "matcher": {
              "id": "byName",
              "options": "reclaims"
            },
            "properties": [
              {
                "id": "color",
                "value": {
                  "fixedColor": "light-orange",
                  "mode": "fixed"
                }
              }
            ]
          },
          {
            "matcher": {
              "id": "byName",
              "options": "faults"
            },
            "properties": [
              {
                "id": "color",
                "value": {
                  "fixedColor": "semi-dark-red",
                  "mode": "fixed"
                }
              }
            ]
          }
        ]
      },
      "gridPos": {
        "h": 9,
        "w": 24,
        "x": 0,
        "y": 177
      },
      "id": 27,
      "options": {
        "legend": {
          "calcs": [
            "mean",
            "lastNotNull",
            "max"
          ],
          "displayMode": "list",
          "placement": "bottom",
          "showLegend": true
        },
        "tooltip": {
          "mode": "multi",
          "sort": "desc"
        }
      },
      "targets": [
        {
          "datasource": {
            "type": "postgres",
            "uid": "${DS_PG_METRICS}"
          },
          "format": "time_series",
          "group": [],
          "metricColumn": "none",
          "rawQuery": true,
          "rawSql": "select\n  $__timeGroup(time, $agg_interval),\n  avg(nullif(r - r_lag, 0) / extract(epoch from time - time_lag)) as \"reclaims\",\n  avg(nullif(f - f_lag, 0) / extract(epoch from time - time_lag)) as \"faults\"\nfrom (\n  select\n    (data->>'minflts')::bigint as r, lag((data->>'minflts')::bigint) over w as r_lag,\n    (data->>'majflts')::bigint as f, lag((data->>'majflts')::bigint) over w as f_lag,\n    time, lag(time) over w as time_lag\n  from kcache\n  where dbname = '$dbname' and $__timeFilter(time)\n    and (tag_data->>'queryid')::text = '$queryid'\n  window w as (order by time)\n) x\nwhere time > time_lag\ngroup by 1\norder by 1;",
          "refId": "A",
          "select": [
            [
              {
                "params": [
                  "value"
                ],
                "type": "column"
              }
            ]
          ],
          "timeColumn": "time",
          "where": [
            {
              "name": "$__timeFilter",
              "params": [],
              "type": "macro"
            }
          ]
        }
      ],
      "title": "Page reclaims and faults (1s rate)",
      "type": "timeseries"
    }
  ],
  "refresh": "",
  "schemaVersion": 38,
  "tags": [],
  "templating": {
    "list": [
      {
        "current": {},
        "datasource": {
          "type": "postgres",
          "uid": "${DS_PG_METRICS}"
        },
        "definition": "SELECT DISTINCT dbname FROM admin.all_distinct_dbname_metrics ORDER BY 1;",
        "hide": 0,
        "includeAll": false,
        "multi": false,
        "name": "dbname",
        "options": [],
        "query": "SELECT DISTINCT dbname FROM admin.all_distinct_dbname_metrics ORDER BY 1;",
        "refresh": 1,
        "regex": "",
        "skipUrlSync": false,
        "sort": 0,
        "type": "query"
      },
      {
        "current": {},
        "datasource": {
          "type": "postgres",
          "uid": "${DS_PG_METRICS}"
        },
        "definition": "SELECT DISTINCT (tag_data->>'queryid')::text FROM stat_statements WHERE dbname = '$dbname' ORDER BY 1;",
        "hide": 0,
        "includeAll": false,
        "multi": false,
        "name": "queryid",
        "options": [],
        "query": "SELECT DISTINCT (tag_data->>'queryid')::text FROM stat_statements WHERE dbname = '$dbname' ORDER BY 1;",
        "refresh": 1,
        "regex": "",
        "skipUrlSync": false,
        "sort": 0,
        "type": "query"
      },
      {
        "auto": true,
        "auto_count": 30,
        "auto_min": "10s",
        "current": {
          "selected": true,
          "text": "1m",
          "value": "1m"
        },
        "hide": 0,
        "name": "agg_interval",
        "options": [
          {
            "selected": false,
            "text": "auto",
            "value": "$__auto_interval_agg_interval"
          },
          {
            "selected": false,
            "text": "10s",
            "value": "10s"
          },
          {
            "selected": true,
            "text": "1m",
            "value": "1m"
          },
          {
            "selected": false,
            "text": "5m",
            "value": "5m"
          },
          {
            "selected": false,
            "text": "1h",
            "value": "1h"
          }
        ],
        "query": "10s, 1m, 5m, 1h",
        "queryValue": "",
        "refresh": 2,
        "skipUrlSync": false,
        "type": "interval"
      }
    ]
  },
  "time": {
    "from": "now-3h",
    "to": "now"
  },
  "timepicker": {},
  "timezone": "",
  "title": "Single query details",
  "uid": "single-query-details",
  "version": 6,
  "weekStart": ""
}